<?xml version="1.0" encoding="UTF-8"?>
<session version="1.0">
<refactoring accessors="true" comment="Delete element from project &apos;Micro_service&apos;&#x0D;&#x0A;- Original project: &apos;Micro_service&apos;&#x0D;&#x0A;- Original element: &apos;Micro_service/src/main/java/com.example.demo&apos;" description="Delete element" element1="/src\/main\/java&lt;com.example.demo" element2="/src\/main\/java&lt;com.example" element3="/src\/main\/java&lt;com" elements="3" flags="589830" id="org.eclipse.jdt.ui.delete" resources="0" stamp="1511286465098" subPackages="false" version="1.0"/>
</session>