INDEX VERSION 1.130+E:\sooftware\sts for spring\Spring_work_space\.metadata\.plugins\org.eclipse.jdt.core
3461090420.index
1545923859.index
3322751217.index
1637222552.index
3746174578.index
2010491873.index
3829748403.index
3731194005.index
2650983601.index
545123006.index
3132105136.index
2445598420.index
2418752133.index
2824325100.index
416806793.index
2024177791.index
735681076.index
3926188048.index
1719901150.index
605184227.index
291414907.index
3556971446.index
1369127545.index
3056684645.index
4183445374.index
511547610.index
3068527367.index
1974665343.index
2705315894.index
2052709310.index
2619118691.index
3667855614.index
2573849602.index
247665719.index
739428369.index
2360898269.index
2468510121.index
452642440.index
1308833313.index
3449736731.index
2857449373.index
3931690672.index
2033087531.index
2672346540.index
891082673.index
4034399936.index
825370005.index
2503134553.index
2885688504.index
2822588620.index
182231861.index
2010274869.index
3167461448.index
4078748038.index
3141745097.index
2846312845.index
182735413.index
2708055714.index
2777520937.index
3012732908.index
22905374.index
1460406857.index
3872624355.index
3848407350.index
1234117873.index
2222885173.index
3549880408.index
648820999.index
2111548131.index
2592665616.index
2054063825.index
4145155140.index
3888223829.index
2310205852.index
3800937273.index
1612711445.index
1244022644.index
2394657268.index
2053047676.index
3425231191.index
379431390.index
1761133826.index
1038137847.index
4291836389.index
2943934462.index
3224974857.index
2683307959.index
3892831582.index
1548206427.index
2399975132.index
43704249.index
1788383238.index
2317036744.index
4004937080.index
1459227496.index
715402072.index
3731153270.index
3844296160.index
